<svg width="16" height="16" viewBox="0 0 16 16" fill="none" xmlns="http://www.w3.org/2000/svg">
<g clip-path="url(#clip0)">
<path d="M9.54862 10.0645L4.61957 14.9935C4.1396 15.4735 3.49179 15.7419 2.81311 15.7419C2.10608 15.7419 1.46861 15.4555 1.00666 14.9935C0.544717 14.5316 0.258301 13.8941 0.258301 13.1871C0.258301 12.849 0.325337 12.5161 0.451849 12.2115C0.578361 11.9019 0.766743 11.6205 1.00666 11.3806L2.32282 10.0645H9.54862Z" fill="#F0BC5E"/>
<path d="M14.9678 4.90289C14.3985 4.90289 13.9355 4.43994 13.9355 3.87064C13.9355 3.30133 14.3985 2.83838 14.9678 2.83838C15.5371 2.83838 16.0001 3.30133 16.0001 3.87064C16.0001 4.43994 15.5371 4.90289 14.9678 4.90289Z" fill="#F0BC5E"/>
<path d="M11.0969 2.32231C10.6702 2.32231 10.3228 1.97491 10.3228 1.54812C10.3228 1.12133 10.6702 0.773926 11.0969 0.773926C11.5237 0.773926 11.8711 1.12133 11.8711 1.54812C11.8711 1.97491 11.5237 2.32231 11.0969 2.32231Z" fill="#F0BC5E"/>
<path d="M14.1941 1.54839C13.7673 1.54839 13.4199 1.20098 13.4199 0.774194C13.4199 0.347404 13.7673 0 14.1941 0C14.6209 0 14.9683 0.347404 14.9683 0.774194C14.9683 1.20098 14.6209 1.54839 14.1941 1.54839Z" fill="#F0BC5E"/>
<path d="M13.6462 6.57126L9.42843 2.35402C9.24181 2.16715 8.99408 2.06445 8.72984 2.06445C8.18523 2.06445 7.74194 2.5075 7.74194 3.05261C7.74194 3.31634 7.84463 3.56433 8.03125 3.7512L8.15121 3.8709L0.823715 11.1984C0.292591 11.7295 0 12.4358 0 13.1873C0 14.738 1.26197 15.9999 2.81263 15.9999C3.56389 15.9999 4.27016 15.7073 4.80154 15.1762L12.129 7.84873L12.249 7.96844C12.4356 8.15531 12.6833 8.258 12.9476 8.258C13.4922 8.258 13.9355 7.81496 13.9355 7.26985C13.9355 7.00611 13.8328 6.75813 13.6462 6.57126ZM12.9476 7.74187C12.8235 7.74187 12.702 7.6916 12.6139 7.60352L12.129 7.11889L4.43662 14.8113C4.00315 15.2449 3.42603 15.4838 2.81263 15.4838C1.54637 15.4838 0.516129 14.4536 0.516129 13.1873C0.516129 12.5739 0.75504 11.997 1.18863 11.5633L3.87097 8.88099L4.4627 9.47272L4.82762 9.1078L4.23589 8.51607L4.64516 8.10679L5.75302 9.21466L6.11794 8.84974L5.01008 7.74187L5.41935 7.3326L6.01109 7.92433L6.37601 7.55941L5.78427 6.96768L6.19355 6.5584L7.30141 7.66627L7.66633 7.30135L6.55847 6.19349L6.96774 5.78421L7.55948 6.37595L7.9244 6.01103L7.33266 5.41929L7.74194 5.01002L8.8498 6.11788L9.21472 5.75296L8.10685 4.6451L8.51613 4.23608L11.1724 6.89207L11.5373 6.52715L8.39617 3.38628C8.30708 3.29694 8.25806 3.17849 8.25806 3.05261C8.25806 2.79215 8.46963 2.58058 8.72984 2.58058C8.85396 2.58058 8.97543 2.63086 9.06351 2.71894L13.2812 6.93618C13.3703 7.02552 13.4194 7.14396 13.4194 7.26985C13.4194 7.53031 13.2078 7.74187 12.9476 7.74187Z" fill="black"/>
<path d="M2.5806 12.9029C2.01129 12.9029 1.54834 12.4399 1.54834 11.8706C1.54834 11.3013 2.01129 10.8384 2.5806 10.8384C3.1499 10.8384 3.61286 11.3013 3.61286 11.8706C3.61286 12.4399 3.1499 12.9029 2.5806 12.9029ZM2.5806 11.3545C2.29595 11.3545 2.06447 11.586 2.06447 11.8706C2.06447 12.1553 2.29595 12.3868 2.5806 12.3868C2.86525 12.3868 3.09673 12.1553 3.09673 11.8706C3.09673 11.586 2.86525 11.3545 2.5806 11.3545Z" fill="black"/>
<path d="M5.41947 12.9029C4.85016 12.9029 4.38721 12.4399 4.38721 11.8706C4.38721 11.3013 4.85016 10.8384 5.41947 10.8384C5.98877 10.8384 6.45172 11.3013 6.45172 11.8706C6.45172 12.4399 5.98877 12.9029 5.41947 12.9029ZM5.41947 11.3545C5.13481 11.3545 4.90334 11.586 4.90334 11.8706C4.90334 12.1553 5.13481 12.3868 5.41947 12.3868C5.70412 12.3868 5.93559 12.1553 5.93559 11.8706C5.93559 11.586 5.70412 11.3545 5.41947 11.3545Z" fill="black"/>
<path d="M3.09671 15.2261C2.52741 15.2261 2.06445 14.7632 2.06445 14.1939C2.06445 13.6246 2.52741 13.1616 3.09671 13.1616C3.66602 13.1616 4.12897 13.6246 4.12897 14.1939C4.12897 14.7632 3.66602 15.2261 3.09671 15.2261ZM3.09671 13.6778C2.81206 13.6778 2.58058 13.9092 2.58058 14.1939C2.58058 14.4785 2.81206 14.71 3.09671 14.71C3.38136 14.71 3.61284 14.4785 3.61284 14.1939C3.61284 13.9092 3.38136 13.6778 3.09671 13.6778Z" fill="black"/>
</g>
<defs>
<clipPath id="clip0">
<rect width="16" height="16" fill="white"/>
</clipPath>
</defs>
</svg>
